{
    "title": "RedirGo",
    "desc": "Плагин для показа промежуточной страницы при переходе на другие сайты с функцией ведения чёрного и белого списка сайтов.",
    "url_delay": "5",
    "whitelist_sites": "atom-m.net,www.atom-m.net",
    "blacklist_sites": "*.ucoz.ru,*.ucoz.net",
    "points" : "after_parse_text"
}
